<?xml version="1.0" encoding="UTF-8" standalone="no"?>
<svg
   xmlns:dc="http://purl.org/dc/elements/1.1/"
   xmlns:cc="http://creativecommons.org/ns#"
   xmlns:rdf="http://www.w3.org/1999/02/22-rdf-syntax-ns#"
   xmlns:svg="http://www.w3.org/2000/svg"
   xmlns="http://www.w3.org/2000/svg"
   xmlns:sodipodi="http://sodipodi.sourceforge.net/DTD/sodipodi-0.dtd"
   xmlns:inkscape="http://www.inkscape.org/namespaces/inkscape"
   version="1.1"
   x="0px"
   y="0px"
   viewBox="0 0 60.289509 53.757454"
   enable-background="new 0 0 64 64"
   xml:space="preserve"
   id="svg3336"
   inkscape:version="0.91 r13725"
   sodipodi:docname="noun_578510_cc_no_authorinfo.svg"
   width="60.289509"
   height="53.757454"><metadata
     id="metadata3360"><rdf:RDF><cc:Work
         rdf:about=""><dc:format>image/svg+xml</dc:format><dc:type
           rdf:resource="http://purl.org/dc/dcmitype/StillImage" /><dc:title></dc:title></cc:Work></rdf:RDF></metadata><defs
     id="defs3358" /><sodipodi:namedview
     pagecolor="#ffffff"
     bordercolor="#666666"
     borderopacity="1"
     objecttolerance="10"
     gridtolerance="10"
     guidetolerance="10"
     inkscape:pageopacity="0"
     inkscape:pageshadow="2"
     inkscape:window-width="2560"
     inkscape:window-height="1537"
     id="namedview3356"
     showgrid="false"
     inkscape:zoom="16.9625"
     inkscape:cx="20.09366"
     inkscape:cy="18.878"
     inkscape:window-x="-8"
     inkscape:window-y="-8"
     inkscape:window-maximized="1"
     inkscape:current-layer="svg3336"
     fit-margin-top="0"
     fit-margin-left="0"
     fit-margin-right="0"
     fit-margin-bottom="0" /><g
     id="g3338"
     transform="translate(-1.8547558,-5.1205451)"><path
       d="m 22.572,34.571 c -0.096,-0.013 -0.19,-0.035 -0.282,-0.052 0.051,-0.309 0.104,-0.578 0.14,-0.849 0.171,-1.316 0,-2.579 -0.807,-3.659 -1.502,-2.008 -3.574,-2.807 -5.918,-2.951 -2.344,0.143 -4.416,0.942 -5.918,2.951 -0.807,1.079 -0.978,2.342 -0.807,3.659 0.036,0.271 0.088,0.54 0.14,0.849 -0.092,0.017 -0.186,0.039 -0.282,0.052 -0.631,0.089 -0.921,0.363 -0.921,1 0.001,0.851 0.174,1.676 0.58,2.435 0.28,0.524 0.761,0.704 1.345,0.72 0.047,0.202 0.079,0.4 0.139,0.59 0.703,2.265 2.88,5.236 5.483,5.314 0.081,0.003 0.161,0.003 0.242,0 0.08,0.003 0.161,0.003 0.242,0 2.603,-0.078 4.781,-3.049 5.483,-5.314 0.059,-0.19 0.092,-0.389 0.139,-0.59 0.584,-0.016 1.065,-0.196 1.345,-0.72 0.406,-0.759 0.579,-1.585 0.58,-2.435 -0.002,-0.637 -0.292,-0.911 -0.923,-1 z"
       id="path3340"
       inkscape:connector-curvature="0"
       style="fill:#000000" /><path
       d="m 29.22,51.18 c -0.426,-0.942 -1.303,-1.649 -2.165,-2.291 -0.982,-0.737 -2.08,-1.333 -3.027,-1.82 l -0.251,-0.13 c -1.002,-0.521 -2.035,-1.058 -3.148,-1.243 -0.025,-0.005 -0.055,-0.005 -0.08,-0.01 -0.12,0.13 -2.707,7.854 -2.782,7.854 -0.08,-0.211 -0.732,-3.789 -0.772,-4.14 l -0.015,-0.15 0,-0.015 c 0,-0.02 0.005,-0.05 0.01,-0.065 l 0.005,-0.03 c 0.02,-0.045 0.04,-0.095 0.07,-0.135 L 17.09,48.97 c 0.193,-0.299 0.396,-0.608 0.59,-0.917 0.039,-0.063 0.051,-0.171 0.026,-0.24 -0.067,-0.191 -0.133,-0.381 -0.2,-0.572 L 17.431,47.03 c -0.08,-0.226 -0.16,-0.451 -0.236,-0.677 -0.025,-0.07 -0.063,-0.073 -0.145,-0.11 -0.242,-0.111 -2.517,-0.11 -2.697,0 -0.077,0.047 -0.12,0.04 -0.145,0.11 -0.075,0.226 -0.155,0.451 -0.236,0.677 l -0.075,0.211 c -0.067,0.191 -0.133,0.381 -0.2,0.572 -0.024,0.07 -0.013,0.178 0.026,0.24 0.194,0.309 0.396,0.618 0.59,0.917 l 0.025,0.035 c 0.03,0.04 0.05,0.09 0.07,0.135 l 0.005,0.03 c 0.005,0.015 0.01,0.045 0.01,0.065 l 0,0.015 -0.015,0.15 c -0.04,0.351 -0.692,3.93 -0.772,4.14 -0.075,0 -2.662,-7.724 -2.782,-7.854 -0.025,0.005 -0.055,0.005 -0.08,0.01 -1.113,0.185 -2.145,0.722 -3.148,1.243 l -0.251,0.13 C 6.428,47.555 5.33,48.152 4.348,48.889 3.487,49.53 2.61,50.237 2.183,51.18 1.807,52.012 1.842,52.994 1.872,53.942 l 0.01,0.296 c 0.005,0.15 0.01,0.351 0.01,0.541 -0.004,0.531 0.397,0.771 0.788,1.007 0.055,0.03 0.11,0.06 0.16,0.095 0.491,0.306 1.013,0.622 1.559,0.867 1.749,0.777 3.764,1.323 6.331,1.729 0.872,0.135 1.684,0.236 2.496,0.301 0.807,0.07 1.574,0.1 2.351,0.1 l 0.125,0 0.125,0 c 0.777,0 1.544,-0.03 2.351,-0.1 0.812,-0.065 1.624,-0.165 2.496,-0.301 2.566,-0.406 4.581,-0.952 6.331,-1.729 0.546,-0.246 1.068,-0.561 1.559,-0.867 0.05,-0.035 0.105,-0.065 0.16,-0.095 0.391,-0.236 0.792,-0.476 0.787,-1.007 0,-0.19 0.005,-0.391 0.01,-0.541 l 0.01,-0.296 c 0.03,-0.948 0.065,-1.93 -0.311,-2.762 z"
       id="path3342"
       inkscape:connector-curvature="0"
       style="fill:#000000" /><path
       d="m 55.168,34.571 c -0.096,-0.013 -0.19,-0.035 -0.282,-0.052 0.051,-0.309 0.104,-0.578 0.14,-0.849 0.171,-1.316 0,-2.579 -0.807,-3.659 -1.502,-2.008 -3.574,-2.807 -5.918,-2.951 -2.344,0.143 -4.416,0.942 -5.918,2.951 -0.807,1.079 -0.978,2.342 -0.807,3.659 0.036,0.271 0.088,0.54 0.14,0.849 -0.092,0.017 -0.186,0.039 -0.282,0.052 -0.631,0.089 -0.921,0.363 -0.921,1 0.001,0.851 0.174,1.676 0.58,2.435 0.28,0.524 0.761,0.704 1.345,0.72 0.047,0.202 0.079,0.4 0.139,0.59 0.703,2.265 2.88,5.236 5.483,5.314 0.081,0.003 0.161,0.003 0.242,0 0.08,0.003 0.161,0.003 0.242,0 2.603,-0.078 4.781,-3.049 5.483,-5.314 0.059,-0.19 0.092,-0.389 0.139,-0.59 0.584,-0.016 1.065,-0.196 1.345,-0.72 0.406,-0.759 0.579,-1.585 0.58,-2.435 -0.002,-0.637 -0.292,-0.911 -0.923,-1 z"
       id="path3344"
       inkscape:connector-curvature="0"
       style="fill:#000000" /><path
       d="m 61.817,51.18 c -0.426,-0.942 -1.303,-1.649 -2.165,-2.291 -0.982,-0.737 -2.08,-1.333 -3.027,-1.82 l -0.251,-0.13 c -1.002,-0.521 -2.035,-1.058 -3.148,-1.243 -0.025,-0.005 -0.055,-0.005 -0.08,-0.01 -0.12,0.13 -2.707,7.854 -2.782,7.854 -0.08,-0.211 -0.732,-3.789 -0.772,-4.14 l -0.015,-0.15 0,-0.015 c 0,-0.02 0.005,-0.05 0.01,-0.065 l 0.005,-0.03 c 0.02,-0.045 0.04,-0.095 0.07,-0.135 l 0.025,-0.035 c 0.193,-0.299 0.396,-0.608 0.59,-0.917 0.039,-0.063 0.051,-0.171 0.026,-0.24 -0.067,-0.191 -0.133,-0.381 -0.2,-0.572 L 50.028,47.03 c -0.08,-0.226 -0.16,-0.451 -0.236,-0.677 -0.025,-0.07 -0.063,-0.073 -0.145,-0.11 -0.242,-0.111 -2.517,-0.11 -2.697,0 -0.077,0.047 -0.12,0.04 -0.145,0.11 -0.075,0.226 -0.155,0.451 -0.236,0.677 l -0.075,0.211 c -0.067,0.191 -0.133,0.381 -0.2,0.572 -0.024,0.07 -0.013,0.178 0.026,0.24 0.194,0.309 0.396,0.618 0.59,0.917 l 0.025,0.035 c 0.03,0.04 0.05,0.09 0.07,0.135 l 0.005,0.03 c 0.005,0.015 0.01,0.045 0.01,0.065 l 0,0.015 -0.015,0.15 c -0.04,0.351 -0.692,3.93 -0.772,4.14 -0.075,0 -2.662,-7.724 -2.782,-7.854 -0.025,0.005 -0.055,0.005 -0.08,0.01 -1.113,0.185 -2.145,0.722 -3.148,1.243 l -0.251,0.13 c -0.947,0.486 -2.045,1.083 -3.027,1.82 -0.862,0.642 -1.739,1.348 -2.165,2.291 -0.376,0.832 -0.341,1.814 -0.311,2.762 l 0.01,0.296 c 0.005,0.15 0.01,0.351 0.01,0.541 -0.005,0.531 0.396,0.772 0.787,1.007 0.055,0.03 0.11,0.06 0.16,0.095 0.491,0.306 1.013,0.622 1.559,0.867 1.749,0.777 3.764,1.323 6.331,1.729 0.872,0.135 1.684,0.236 2.496,0.301 0.807,0.07 1.574,0.1 2.351,0.1 l 0.125,0 0.125,0 c 0.777,0 1.544,-0.03 2.351,-0.1 0.812,-0.065 1.624,-0.165 2.496,-0.301 2.566,-0.406 4.581,-0.952 6.331,-1.729 0.546,-0.246 1.068,-0.561 1.559,-0.867 0.05,-0.035 0.105,-0.065 0.16,-0.095 0.391,-0.236 0.792,-0.476 0.787,-1.007 0,-0.19 0.005,-0.391 0.01,-0.541 l 0.01,-0.296 c 0.03,-0.948 0.065,-1.93 -0.31,-2.762 z"
       id="path3346"
       inkscape:connector-curvature="0"
       style="fill:#000000" /><path
       d="M 36.771,9.465 C 36.728,8.073 36.041,6.851 35.002,6.064 34.238,5.485 33.282,5.141 32.251,5.141 27.8,5.138 24.534,5.185 20.084,5.121 17.835,5.088 15.574,6.853 15.558,9.573 l 0,0.145 c -10e-4,2.885 0,13.455 0,13.455 0,0.281 0.339,0.422 0.538,0.224 0.873,-0.868 2.59,-2.581 3.545,-3.524 0.032,-0.032 0.064,-0.063 0.096,-0.095 0.105,-0.104 0.29,-0.18 0.438,-0.181 1.979,-0.004 3.959,-0.006 5.938,-0.007 1.928,-0.001 2.876,0.253 4.75,-0.295 1.633,-0.478 3.108,-1.533 4.155,-2.865 0.481,-0.611 0.882,-1.294 1.186,-2.034 0.659,-1.601 0.618,-3.265 0.567,-4.931 z m -16.774,5.139 c -1.112,0 -2.014,-0.902 -2.014,-2.014 0,-1.112 0.902,-2.014 2.014,-2.014 1.112,0 2.014,0.902 2.014,2.014 0,1.112 -0.902,2.014 -2.014,2.014 z m 6.202,0 c -1.112,0 -2.014,-0.902 -2.014,-2.014 0,-1.112 0.902,-2.014 2.014,-2.014 1.112,0 2.014,0.902 2.014,2.014 0,1.112 -0.902,2.014 -2.014,2.014 z m 5.928,0 c -1.112,0 -2.014,-0.902 -2.014,-2.014 0,-1.112 0.902,-2.014 2.014,-2.014 1.112,0 2.014,0.902 2.014,2.014 0,1.112 -0.902,2.014 -2.014,2.014 z"
       id="path3348"
       inkscape:connector-curvature="0"
       style="fill:#000000" /><path
       d="m 43.42,5.196 -0.072,0 c -2.436,0.036 -4.477,0.036 -6.598,0.029 0.566,0.559 1.017,1.225 1.318,1.956 1.684,0 3.367,0 5.309,-0.029 1.547,0 3.102,1.146 3.116,3.066 l 0,10.696 -0.029,-0.022 c -0.709,-0.709 -1.49,-1.49 -2.02,-2.013 L 44.365,18.8 c -0.279,-0.279 -0.688,-0.451 -1.089,-0.451 l -5.387,-0.014 c -0.48,0 -0.881,0.021 -1.261,0.036 -0.337,0.014 -0.638,0.036 -0.967,0.029 -0.63,0.652 -1.347,1.211 -2.106,1.655 0.946,0.258 1.648,0.287 2.214,0.287 0.308,0 0.609,-0.007 0.938,-0.022 0.351,-0.014 0.738,-0.029 1.175,-0.029 l 5.223,0.014 c 0.53,0.516 1.29,1.275 1.984,1.97 l 1.204,1.196 c 0.236,0.236 0.552,0.365 0.888,0.365 0.322,0 0.63,-0.122 0.867,-0.344 0.251,-0.236 0.394,-0.573 0.394,-0.917 l 0,-12.357 C 48.427,7.116 45.827,5.196 43.42,5.196 Z"
       id="path3350"
       inkscape:connector-curvature="0"
       style="fill:#000000" /></g></svg>